About the Relationship between Arms Trafficking and Political Violence in Central and Southern America
…
Small Arms - UNROCA

2.1. Conversion a formato largo

2.1.1 Major Arms - UCDP / SIPRI

SIPRI_Major_Arms_long <- Volume_of_imports_of_major_arms %>%
  pivot_longer(cols = starts_with("19") | starts_with("20"), 
               names_to = "Year", values_to = "Major_Arms") %>%
  mutate(Year = as.numeric(Year))

SIPRI_Major_Arms_long

# A tibble: 434 × 3
   Country    Year Major_Arms
   <chr>     <dbl>      <dbl>
 1 Argentina  1990        159
 2 Argentina  1991         NA
 3 Argentina  1992         27
 4 Argentina  1993         NA
 5 Argentina  1994        209
 6 Argentina  1995         43
 7 Argentina  1996         21
 8 Argentina  1997        105
 9 Argentina  1998        171
10 Argentina  1999        276
# ℹ 424 more rows

2.1.2 Small Arms - UNROCA

UNROCA_Small_Arms_long <- small_arms_unroca %>%
  pivot_longer(cols = starts_with("19") | starts_with("20"), 
               names_to = "Year", values_to = "Small_Arms") %>%
  mutate(Year = as.numeric(Year))

UNROCA_Small_Arms_long

# A tibble: 210 × 3
   Country    Year Small_Arms
   <chr>     <dbl>      <dbl>
 1 Argentina  2006        130
 2 Argentina  2007       6114
 3 Argentina  2008       9350
 4 Argentina  2009       3975
 5 Argentina  2010       4275
 6 Argentina  2011        228
 7 Argentina  2012        245
 8 Argentina  2013       2597
 9 Argentina  2014       5472
10 Argentina  2015      12729
# ℹ 200 more rows

2.1.3 Political Events - ACLED

ACLED_Political_Events_long <- ACLED_Political_events %>%
 pivot_longer(cols = starts_with("19") | starts_with("20"), 
               names_to = "Year", values_to = "Political_Events") %>%
  mutate(Year = as.numeric(Year))

ACLED_Political_Events_long

# A tibble: 42 × 3
   Country    Year Political_Events
   <chr>     <dbl>            <int>
 1 Argentina  2018              189
 2 Argentina  2019              157
 3 Argentina  2020              183
 4 Bolivia    2018               56
 5 Bolivia    2019              154
 6 Bolivia    2020              122
 7 Brazil     2018            11019
 8 Brazil     2019             8893
 9 Brazil     2020             8310
10 Chile      2018              476
# ℹ 32 more rows

2.1.4 Armed Conflicts - UCDP / PRIO

PRIO_Armed_Conflicts_long <- PRIO_Armed_Conflicts %>%
  pivot_longer(cols = starts_with("19") | starts_with("20"), 
               names_to = "Year", values_to = "Armed_Conflict") %>%
  mutate(Year = as.numeric(Year))

PRIO_Armed_Conflicts_long

# A tibble: 217 × 3
   Country   Year Armed_Conflict
   <chr>    <dbl>          <dbl>
 1 Colombia  1990              1
 2 Colombia  1991              1
 3 Colombia  1992              1
 4 Colombia  1993              1
 5 Colombia  1994              1
 6 Colombia  1995              1
 7 Colombia  1996              1
 8 Colombia  1997              1
 9 Colombia  1998              1
10 Colombia  1999              1
# ℹ 207 more rows

2.1.5 Non-State Conflict - UCDP / PRIO

PRIO_Non_State_Conflicts_long <- PRIO_Non_State_Conflicts %>%
  pivot_longer(cols = starts_with("19") | starts_with("20"), 
               names_to = "Year", values_to = "Non_State_Violence") %>%
  mutate(Year = as.numeric(Year))

PRIO_Non_State_Conflicts_long

# A tibble: 279 × 3
   Country  Year Non_State_Violence
   <chr>   <dbl>              <dbl>
 1 Bolivia  1990                  0
 2 Bolivia  1991                  0
 3 Bolivia  1992                 NA
 4 Bolivia  1993                  0
 5 Bolivia  1994                  0
 6 Bolivia  1995                  0
 7 Bolivia  1996                 NA
 8 Bolivia  1997                  0
 9 Bolivia  1998                  0
10 Bolivia  1999                  0
# ℹ 269 more rows

2.1.6 Deadly Electoral Events - UCDP / PRIO

PRIO_Deadly_Electoral_Events_long <- PRIO_Deadly_Electoral_Events %>%
  pivot_longer(cols = starts_with("19") | starts_with("20"), 
               names_to = "Year", values_to = "Deadly_Electoral_Events") %>%
  mutate(Year = as.numeric(Year))

PRIO_Deadly_Electoral_Events_long

# A tibble: 310 × 3
   Country  Year Deadly_Electoral_Events
   <chr>   <dbl>                   <dbl>
 1 Bolivia  1990                       0
 2 Bolivia  1991                       0
 3 Bolivia  1992                       0
 4 Bolivia  1993                       0
 5 Bolivia  1994                       0
 6 Bolivia  1995                       0
 7 Bolivia  1996                       0
 8 Bolivia  1997                       0
 9 Bolivia  1998                       0
10 Bolivia  1999                       0
# ℹ 300 more rows

2.1.7 Firearm Homicides - OEA

OAS_Firearm_Homicides_long <- OAS_Firearm_Homicides %>%
  pivot_longer(cols = starts_with("19") | starts_with("20"), 
               names_to = "Year", values_to = "Firearm_Homicide") %>%
  mutate(Year = as.numeric(Year))

OAS_Firearm_Homicides_long

# A tibble: 315 × 3
   Country    Year Firearm_Homicide
   <chr>     <dbl>            <dbl>
 1 Argentina  2000               NA
 2 Argentina  2001               NA
 3 Argentina  2002               NA
 4 Argentina  2003               NA
 5 Argentina  2004             1178
 6 Argentina  2005              924
 7 Argentina  2006              884
 8 Argentina  2007              964
 9 Argentina  2008             1118
10 Argentina  2009              608
# ℹ 305 more rows

2.1.8 Journalists Killed - CPJ

CPJ_Journalists_Killed_long <- CPJ_Journalists_Killed %>%
  pivot_longer(cols = starts_with("19") | starts_with("20"), 
               names_to = "Year", values_to = "Journalists_Killed") %>%
  mutate(Year = as.numeric(Year))

CPJ_Journalists_Killed_long

# A tibble: 434 × 3
   Country    Year Journalists_Killed
   <chr>     <dbl>              <int>
 1 Argentina  1990                 NA
 2 Argentina  1991                 NA
 3 Argentina  1992                  0
 4 Argentina  1993                  0
 5 Argentina  1994                  0
 6 Argentina  1995                  0
 7 Argentina  1996                  0
 8 Argentina  1997                  1
 9 Argentina  1998                  0
10 Argentina  1999                  1
# ℹ 424 more rows

2.1.9 Politicians Killed - GI

GI_Politicians_Killed_long <- GI_Politicians_Killed |>
  pivot_longer(cols = starts_with("19") | starts_with("20"), 
               names_to = "Year", values_to = "Politicians_Killed") %>%
  mutate(Year = as.numeric(Year))

GI_Politicians_Killed_long <- as_tibble(GI_Politicians_Killed_long)

GI_Politicians_Killed_long

# A tibble: 26 × 3
   Country    Year Politicians_Killed
   <chr>     <dbl>              <int>
 1 Argentina  2019                  2
 2 Argentina  2020                  1
 3 Bolivia    2019                  1
 4 Bolivia    2020                  0
 5 Brazil     2019                  9
 6 Brazil     2020                  6
 7 Chile      2019                  1
 8 Chile      2020                  0
 9 Colombia   2019                 63
10 Colombia   2020                 47
# ℹ 16 more rows

2.1.10 Lynchings - LYLA / PRIO

LYLA_Lynchings_long <- LYLA_Lynchings %>%
  pivot_longer(cols = starts_with("19") | starts_with("20"), 
               names_to = "Year", values_to = "Lynchings") %>%
  mutate(Year = as.numeric(Year))

LYLA_Lynchings_long

# A tibble: 294 × 3
   Country    Year Lynchings
   <chr>     <dbl>     <dbl>
 1 Argentina  2000         0
 2 Argentina  2001         0
 3 Argentina  2002         0
 4 Argentina  2003         0
 5 Argentina  2004         0
 6 Argentina  2005         0
 7 Argentina  2006         0
 8 Argentina  2007         0
 9 Argentina  2008         0
10 Argentina  2009         0
# ℹ 284 more rows
…
final_data <- SIPRI_Major_Arms_long %>%
  left_join(UNROCA_Small_Arms_long, by = c("Country", "Year")) %>%
  left_join(ACLED_Political_Events_long, by = c("Country", "Year")) |>
  left_join(PRIO_Armed_Conflicts_long, by = c("Country", "Year")) %>%
  left_join(PRIO_Non_State_Conflicts_long, by = c("Country", "Year")) %>%
  left_join(PRIO_Deadly_Electoral_Events_long, by = c("Country", "Year")) %>%
  left_join(OAS_Firearm_Homicides_long, by = c("Country", "Year")) %>%
  left_join(CPJ_Journalists_Killed_long, by = c("Country", "Year")) %>%
  left_join(GI_Politicians_Killed_long, by = c("Country", "Year")) %>%
  left_join(LYLA_Lynchings_long, by = c("Country", "Year"))

final_data

# A tibble: 434 × 12
   Country  Year Major_Arms Small_Arms Political_Events Armed_Conflict
   <chr>   <dbl>      <dbl>      <dbl>            <int>          <dbl>
 1 Argent…  1990        159         NA               NA             NA
 2 Argent…  1991         NA         NA               NA             NA
 3 Argent…  1992         27         NA               NA             NA
 4 Argent…  1993         NA         NA               NA             NA
 5 Argent…  1994        209         NA               NA             NA
 6 Argent…  1995         43         NA               NA             NA
 7 Argent…  1996         21         NA               NA             NA
 8 Argent…  1997        105         NA               NA             NA
 9 Argent…  1998        171         NA               NA             NA
10 Argent…  1999        276         NA               NA             NA
# ℹ 424 more rows
# ℹ 6 more variables: Non_State_Violence <dbl>,
#   Deadly_Electoral_Events <dbl>, Firearm_Homicide <dbl>,
#   Journalists_Killed <int>, Politicians_Killed <int>,
#   Lynchings <dbl>
…
